{
   "abstract" : "Map Perl operating system names to generic types",
   "author" : [
      "David Golden <dagolden@cpan.org>"
   ],
   "dynamic_config" : 0,
   "generated_by" : "Dist::Zilla version 5.031, CPAN::Meta::Converter version 2.143240",
   "license" : [
      "perl_5"
   ],
   "meta-spec" : {
      "url" : "http://search.cpan.org/perldoc?CPAN::Meta::Spec",
      "version" : 2
   },
   "name" : "Perl-OSType",
   "no_index" : {
      "directory" : [
         "t",
         "xt",
         "examples",
         "corpus"
      ],
      "package" : [
         "DB"
      ]
   },
   "prereqs" : {
      "configure" : {
         "requires" : {
            "ExtUtils::MakeMaker" : "6.17",
            "perl" : "5.006"
         }
      },
      "develop" : {
         "requires" : {
            "Dist::Zilla" : "5",
            "Dist::Zilla::Plugin::OnlyCorePrereqs" : "0.003",
            "Dist::Zilla::PluginBundle::DAGOLDEN" : "0.072",
            "File::Spec" : "0",
            "File::Temp" : "0",
            "IO::Handle" : "0",
            "IPC::Open3" : "0",
            "Pod::Coverage::TrustPod" : "0",
            "Test::CPAN::Meta" : "0",
            "Test::More" : "0",
            "Test::Pod" : "1.41",
            "Test::Pod::Coverage" : "1.08",
            "Test::Spelling" : "0.12",
            "Test::Version" : "1"
         }
      },
      "runtime" : {
         "requires" : {
            "Exporter" : "0",
            "perl" : "5.006",
            "strict" : "0",
            "warnings" : "0"
         }
      },
      "test" : {
         "recommends" : {
            "CPAN::Meta" : "2.120900"
         },
         "requires" : {
            "ExtUtils::MakeMaker" : "0",
            "File::Spec" : "0",
            "Test::More" : "0.88",
            "constant" : "0",
            "perl" : "5.006"
         }
      }
   },
   "provides" : {
      "Perl::OSType" : {
         "file" : "lib/Perl/OSType.pm",
         "version" : "1.008"
      }
   },
   "release_status" : "stable",
   "resources" : {
      "bugtracker" : {
         "web" : "https://github.com/dagolden/Perl-OSType/issues"
      },
      "homepage" : "https://github.com/dagolden/Perl-OSType",
      "repository" : {
         "type" : "git",
         "url" : "https://github.com/dagolden/Perl-OSType.git",
         "web" : "https://github.com/dagolden/Perl-OSType"
      }
   },
   "version" : "1.008",
   "x_authority" : "cpan:DAGOLDEN",
   "x_contributors" : [
      "Chris 'BinGOs' Williams <chris@bingosnet.co.uk>",
      "Jonas B. Nielsen <jonasbn@hoarfrost.local>",
      "Owain G. Ainsworth <oga@nicotinebsd.org>",
      "Paul Green <Paul.Green@stratus.com>",
      "Piotr Roszatycki <piotr.roszatycki@gmail.com>"
   ]
}

